<svg width="29" height="29" viewBox="0 0 29 29" fill="none" xmlns="http://www.w3.org/2000/svg">
<circle cx="14.5" cy="14.5" r="14.5" fill="#2D2929" fill-opacity="0.11"/>
<path d="M11 13L15 17L19 13" stroke="black" stroke-width="2"/>
</svg>
