<svg width="76" height="45" viewBox="0 0 76 45" fill="none" xmlns="http://www.w3.org/2000/svg">
<path d="M14.1387 0.570312L14.4752 26.6366" stroke="#E0E0E0" stroke-width="10"/>
<path d="M27.6113 13.7563L1.00013 13.4267" stroke="#E0E0E0" stroke-width="10"/>
<path d="M41.24 35.157V35.157C37.7937 35.157 35 32.3632 35 28.917V17.4204C35 11.8976 39.4772 7.42041 45 7.42041H64C69.5228 7.42041 74 11.8976 74 17.4204V25.157C74 30.6798 69.5228 35.157 64 35.157H50.6" stroke="black" stroke-width="3"/>
<path d="M39.6787 33.6157V41.5863C39.6787 42.4186 40.6361 42.8867 41.2929 42.3755L51.3787 34.5263" stroke="black" stroke-width="3"/>
<path d="M43.5791 17.4365H65.4191" stroke="black" stroke-width="3" stroke-linecap="round"/>
<path d="M43.5791 24.3706H56.0591" stroke="black" stroke-width="3" stroke-linecap="round"/>
</svg>
